<svg width="22" height="21" viewBox="0 0 22 21" fill="none" xmlns="http://www.w3.org/2000/svg">
<path d="M1.25 11.0001L10.204 2.04507C10.644 1.60607 11.356 1.60607 11.795 2.04507L20.75 11.0001M3.5 8.75007V18.8751C3.5 19.4961 4.004 20.0001 4.625 20.0001H8.75V15.1251C8.75 14.5041 9.254 14.0001 9.875 14.0001H12.125C12.746 14.0001 13.25 14.5041 13.25 15.1251V20.0001H17.375C17.996 20.0001 18.5 19.4961 18.5 18.8751V8.75007M7.25 20.0001H15.5" stroke="#EEEEEE" stroke-width="1.5" stroke-linecap="round" stroke-linejoin="round"/>
</svg>
