<svg width="56" height="67" viewBox="0 0 56 67" fill="none" xmlns="http://www.w3.org/2000/svg">
<path d="M0 28.9561C0 28.4159 0.218504 27.8987 0.605797 27.5222L26.6058 2.24277C27.3821 1.48803 28.6179 1.48803 29.3942 2.24277L55.3942 27.5222C55.7815 27.8987 56 28.4159 56 28.9561V64.6135C56 65.7181 55.1046 66.6135 54 66.6135H2C0.895429 66.6135 0 65.7181 0 64.6135V28.9561Z" fill="#FDC21E"/>
<path d="M11.4717 45.2909C18.9726 50.9953 35.9737 56.4932 43.9721 32.8497" stroke="#01003E" stroke-width="1.58184" stroke-linecap="round" stroke-linejoin="round"/>
<path d="M22.9574 37.9499C22.8975 38.7387 22.2652 38.6661 21.3623 39.2338C20.4594 39.8015 19.7658 38.2982 19.8257 37.5095C19.8856 36.7207 20.5735 36.1298 21.3623 36.1896C22.1511 36.2495 23.0172 37.1611 22.9574 37.9499Z" fill="#01003E"/>
<path d="M31.2634 33.8045C31.2035 34.5932 30.3833 34.9026 29.5945 34.8428C28.8057 34.7829 28.2148 34.0949 28.2747 33.3061C28.3345 32.5174 29.5113 31.8181 30.3001 31.8779C31.0889 31.9378 31.3232 33.0157 31.2634 33.8045Z" fill="#01003E"/>
</svg>
