<svg width="109" height="101" viewBox="0 0 109 101" fill="none" xmlns="http://www.w3.org/2000/svg">
<path d="M103.363 82.1403C100.49 120.113 107.767 139.13 29.6616 145.681C-48.4439 152.232 -71.5757 156.269 -33.6369 71.7104C4.30196 -12.8481 -7.12252 55.2198 31.6958 18.6464C70.5142 -17.9271 106.235 44.1677 103.363 82.1403Z" fill="#ED757F"/>
<path d="M24.9456 78.8006C24.6935 78.308 24.0917 78.113 23.6013 78.365C23.1109 78.6169 22.9177 79.2204 23.1697 79.7129L24.9456 78.8006ZM36.3767 91.3466L36.1944 92.331L36.1944 92.331L36.3767 91.3466ZM50.2821 85.119C49.5739 84.4116 49.5741 84.4115 49.5742 84.4113C49.5742 84.4113 49.5743 84.4112 49.5743 84.4112C49.5743 84.4112 49.5742 84.4113 49.574 84.4115C49.5736 84.4119 49.5727 84.4128 49.5714 84.4141C49.5688 84.4167 49.5645 84.421 49.5584 84.4271C49.5462 84.4391 49.5272 84.4579 49.5015 84.4829C49.45 84.533 49.372 84.6081 49.2695 84.7042C49.0643 84.8965 48.7613 85.1726 48.3767 85.5014C47.6059 86.1603 46.5149 87.0241 45.2316 87.8484C42.6115 89.5312 39.4184 90.9002 36.559 90.3621L36.1944 92.331C39.8458 93.0183 43.6054 91.2736 46.3103 89.5362C47.6895 88.6504 48.854 87.7276 49.6732 87.0273C50.0835 86.6766 50.4091 86.38 50.6338 86.1695C50.7461 86.0642 50.8334 85.9803 50.8934 85.9218C50.9234 85.8926 50.9467 85.8697 50.9629 85.8536C50.971 85.8455 50.9774 85.8392 50.9819 85.8346C50.9842 85.8324 50.9861 85.8305 50.9874 85.8291C50.9881 85.8284 50.9887 85.8279 50.9892 85.8274C50.9894 85.8272 50.9897 85.8269 50.9898 85.8268C50.99 85.8265 50.9902 85.8263 50.2821 85.119ZM36.559 90.3621C35.0828 90.0842 33.6145 89.2735 32.215 88.1397C30.8207 87.0102 29.5454 85.6013 28.4582 84.2065C27.3733 82.8146 26.4919 81.4579 25.8815 80.4479C25.5767 79.9437 25.3407 79.5279 25.1818 79.2399C25.1023 79.0959 25.0422 78.984 25.0025 78.9091C24.9826 78.8716 24.9678 78.8435 24.9583 78.8252C24.9535 78.816 24.9501 78.8093 24.948 78.8052C24.9469 78.8031 24.9462 78.8017 24.9458 78.8009C24.9456 78.8006 24.9454 78.8003 24.9454 78.8003C24.9454 78.8002 24.9454 78.8003 24.9454 78.8003C24.9455 78.8004 24.9456 78.8006 24.0576 79.2567C23.1697 79.7129 23.1698 79.7131 23.1699 79.7134C23.17 79.7136 23.1702 79.7139 23.1703 79.7142C23.1706 79.7148 23.171 79.7155 23.1715 79.7165C23.1724 79.7183 23.1737 79.7208 23.1754 79.7239C23.1786 79.7302 23.1832 79.739 23.1891 79.7504C23.2009 79.7731 23.218 79.8058 23.2404 79.8478C23.285 79.932 23.3504 80.0536 23.4354 80.2078C23.6056 80.5161 23.8548 80.9549 24.1748 81.4844C24.8137 82.5416 25.7397 83.9679 26.8863 85.4388C28.0305 86.9067 29.4108 88.4405 30.9625 89.6975C32.5091 90.9504 34.2774 91.9702 36.1944 92.331L36.559 90.3621Z" fill="#01003E"/>
<ellipse cx="3.99998" cy="3.99761" rx="3.99998" ry="3.99761" transform="matrix(0.650291 0.76008 -0.757093 0.652847 31.9656 51.0715)" fill="#01003E"/>
<ellipse cx="3.99998" cy="3.99761" rx="3.99998" ry="3.99761" transform="matrix(0.650291 0.76008 -0.757093 0.652847 57.3833 59.0344)" fill="#01003E"/>
</svg>
