<svg width="127" height="132" viewBox="0 0 127 132" fill="none" xmlns="http://www.w3.org/2000/svg">
<path d="M-2.07209 59.3512C-0.704249 55.2641 2.25461 51.9017 6.13457 50.0252L57.9717 24.9552C65.7924 21.1729 75.2023 24.3222 79.1708 32.05L105.475 83.272C107.444 87.1059 107.783 91.5719 106.415 95.659L88.5647 148.995C85.7603 157.374 76.6937 161.894 68.314 159.089L-9.82733 132.938C-18.207 130.133 -22.7267 121.066 -19.9222 112.687L-2.07209 59.3512Z" fill="#FDC21E"/>
<path d="M19.239 66.7423C20.5877 85.9461 35.0553 119.459 82.1362 99.8798" stroke="#01003E" stroke-width="3.23151" stroke-linecap="round" stroke-linejoin="round"/>
<path d="M45.9874 74.486C44.6956 75.457 43.955 74.3884 41.8667 73.767C39.7783 73.1457 41.1519 70.055 42.4437 69.0841C43.7355 68.1131 45.5699 68.3731 46.5408 69.6649C47.5118 70.9567 47.2792 73.5151 45.9874 74.486Z" fill="#01003E"/>
<path d="M63.5447 81.6537C62.2529 82.6247 60.6726 81.7821 59.7016 80.4903C58.7307 79.1986 58.9907 77.3642 60.2825 76.3932C61.5743 75.4222 64.2337 76.2868 65.2047 77.5786C66.1757 78.8704 64.8365 80.6827 63.5447 81.6537Z" fill="#01003E"/>
</svg>
