<svg width="76" height="24" viewBox="0 0 76 24" fill="none" xmlns="http://www.w3.org/2000/svg">
<g clip-path="url(#clip0_341_965)">
<path d="M7.08325 16.0694C7.08325 17.4099 7.08325 18.7504 7.08325 20.0789C7.08325 20.7012 7.19097 21.2398 7.88514 21.539C8.30404 21.7186 8.43569 22.1973 8.35191 22.6401C8.26813 23.1189 7.87317 23.1069 7.49018 23.1069C5.28798 23.1069 3.09774 23.1069 0.895534 23.1069C0.560416 23.1069 0.141518 23.2027 0.0338018 22.7239C-0.0619463 22.2691 -0.00210373 21.7545 0.452699 21.551C1.11097 21.2638 1.23065 20.773 1.23065 20.1507C1.23065 15.0282 1.23065 9.91761 1.23065 4.79509C1.23065 4.06501 1.12294 3.41871 0.380888 3.02375C0.0697073 2.84423 -0.00210374 2.46123 0.0816758 2.09021C0.165455 1.76706 0.392857 1.63541 0.727975 1.61147C2.67884 1.52769 4.5938 1.22848 6.47286 0.725801C7.04735 0.57021 7.08325 0.797612 7.08325 1.25241C7.07128 3.1195 7.08325 4.97462 7.08325 6.84171C7.08325 7.02123 6.9875 7.27257 7.179 7.38029C7.4064 7.49997 7.49018 7.21273 7.62183 7.09304C8.84262 5.97997 10.3028 5.7406 11.8587 6.00391C14.6234 6.47068 16.3349 8.2899 16.6461 11.0666C16.8974 13.2688 16.7059 15.483 16.7538 17.6852C16.7777 18.4392 16.7538 19.1932 16.7897 19.9472C16.8136 20.7371 17.1727 21.2997 17.9626 21.563C18.2379 21.6467 18.5251 21.7545 18.5251 22.1375C18.5251 22.4726 18.3217 22.7239 18.0464 22.7957C16.0237 23.3223 14.001 23.4061 12.134 22.2811C11.0927 21.6467 10.8055 20.5456 10.7935 19.4086C10.7696 16.9431 10.7935 14.4896 10.7815 12.0241C10.7815 11.3897 10.8055 10.7554 10.59 10.1211C10.2429 9.06785 9.8001 8.64895 8.96231 8.69682C8.10057 8.73273 7.4064 9.41493 7.25081 10.3964C7.04735 11.6291 7.07128 12.8738 7.07128 14.1066C7.07128 14.7649 7.07128 15.4231 7.07128 16.0814L7.08325 16.0694Z" fill="#01003E"/>
<path d="M49.7546 14.9844C49.7546 13.5123 49.7546 12.0402 49.7546 10.5681C49.7546 9.84996 49.6469 9.10791 48.869 8.82066C48.091 8.53342 47.4328 8.91641 46.8942 9.4909C45.8529 10.6159 45.4101 11.9803 45.3742 13.4644C45.3263 15.7145 45.3622 17.9646 45.3742 20.2147C45.3742 20.8251 45.5058 21.3397 46.1641 21.627C46.571 21.8065 46.6907 22.2493 46.6548 22.6682C46.6189 23.0871 46.3197 23.2068 45.9008 23.2068C43.6507 23.1948 41.3887 23.2068 39.1386 23.2068C38.8154 23.2068 38.4324 23.2667 38.3367 22.8358C38.2409 22.393 38.2768 21.8783 38.6957 21.6988C39.4976 21.3517 39.5335 20.7413 39.5335 20.0352C39.5335 16.9712 39.5335 13.9073 39.5335 10.8433C39.5335 9.92177 39.4617 9.06003 38.5521 8.50948C38.2409 8.32996 38.2649 7.9709 38.3606 7.65972C38.4564 7.36051 38.6598 7.18098 39.0069 7.18098C41.0296 7.18098 42.9685 6.66633 44.8954 6.13972C45.3263 6.02003 45.3622 6.17562 45.3622 6.49877C45.3622 7.03736 45.3622 7.58791 45.3622 8.12649C45.3622 8.23421 45.3383 8.37783 45.4699 8.43767C45.6375 8.50948 45.6973 8.35389 45.7811 8.24618C47.1934 6.35515 49.1562 5.75673 51.3943 6.032C53.7042 6.31925 55.3798 7.86318 55.5953 10.3646C55.8466 13.1652 55.6432 15.9778 55.703 18.7904C55.703 19.1734 55.7269 19.5684 55.7509 19.9514C55.7987 20.8131 56.1698 21.4235 57.0435 21.6748C57.2828 21.7466 57.5222 21.8663 57.5342 22.1775C57.5342 22.5126 57.3666 22.7281 57.0794 22.8597C56.852 22.9674 56.6126 23.0632 56.3613 23.0991C54.9011 23.2667 53.4529 23.3145 52.0406 22.8478C50.4847 22.3331 49.8504 21.1243 49.8025 19.5923C49.7546 18.0604 49.8025 16.5284 49.8025 14.9964H49.7786L49.7546 14.9844Z" fill="#01003E"/>
<path d="M75.699 22.5323C75.699 22.5323 75.6152 22.616 75.5673 22.652C73.9755 23.2145 72.3478 23.1427 70.744 22.7836C69.607 22.5323 68.7213 21.886 68.3982 20.6891C68.3144 20.366 68.2067 20.0428 68.099 19.6479C67.8955 20.1386 67.7399 20.5694 67.5364 20.9764C66.172 23.753 62.5575 23.8009 60.487 22.5083C58.4763 21.2636 58.0693 18.3433 59.5415 16.2847C60.7862 14.5493 62.6293 13.7474 64.5682 13.1131C65.6095 12.7779 66.6867 12.6582 67.7638 12.4787C68.0511 12.4308 68.2067 12.3112 68.1947 11.988C68.1588 11.1023 68.2426 10.2047 68.0271 9.33101C67.7997 8.34959 67.2731 7.7392 66.4473 7.61951C65.5616 7.48786 64.6161 7.9666 64.1613 8.78045C63.7664 9.47463 63.6586 10.2406 63.5509 11.0066C63.3953 12.012 63.156 12.3471 62.1626 12.5146C60.6785 12.754 58.9311 11.8564 59.5654 9.84565C59.9723 8.55305 60.8939 7.70329 62.0549 7.14077C64.8675 5.8003 67.7399 5.78833 70.5645 7.03305C72.4196 7.83494 73.5087 9.2951 73.8199 11.3178C73.9994 12.4787 73.9276 13.6397 73.9396 14.8006C73.9635 16.4882 73.9396 18.1757 73.9755 19.8633C73.9755 20.366 74.0712 20.8686 74.5619 21.1679L74.5739 21.1798C74.6697 21.4192 74.8731 21.5269 75.1005 21.5748C75.6271 21.6945 75.8426 22.0057 75.687 22.5323H75.699ZM68.1229 15.6863C68.1229 15.2315 68.1229 14.9442 68.1229 14.657C68.1229 14.0107 67.9194 13.8671 67.309 14.1064C66.0284 14.5852 65.1906 15.5068 64.6999 16.7515C64.3648 17.6132 64.0895 18.5108 64.4486 19.4564C64.6161 19.9112 64.9273 20.1386 65.418 20.1146C66.2678 20.0787 66.8064 19.5641 67.2492 18.9417C67.9793 17.9244 68.2186 16.7634 68.1229 15.6863Z" fill="#01003E"/>
<path d="M75.6975 22.5321C75.8531 22.0055 75.6497 21.6943 75.1111 21.5746C74.8837 21.5268 74.6802 21.4191 74.5845 21.1797C74.9794 21.2994 75.3983 21.3832 75.7334 21.6345C76.1164 21.9217 76.0925 22.2329 75.6975 22.5441V22.5321Z" fill="#01003E"/>
<path d="M35.7951 13.1732C35.7951 15.1719 35.7951 17.1707 35.7951 19.1694C35.7951 19.5165 35.831 19.8636 35.8788 20.2107C35.9866 20.9886 36.4294 21.4674 37.1475 21.7187C37.3629 21.7905 37.5664 21.8264 37.5784 22.1137C37.5784 22.377 37.4467 22.5445 37.2313 22.6762C36.8842 22.8797 36.4892 22.9275 36.1182 22.9754C34.7777 23.1549 33.4492 23.0472 32.1447 22.6403C31.4625 22.4249 30.9359 22.0179 30.5529 21.4434C30.3614 21.1562 30.2177 21.0485 29.9903 21.4195C28.8294 23.2627 26.687 23.5858 24.6644 23.1669C22.8811 22.7959 21.5286 21.8743 20.7626 20.1867C20.3437 19.2652 20.2599 18.2838 20.248 17.3023C20.224 15.2079 20.248 13.1134 20.248 11.0189C20.248 10.5521 20.2121 10.0853 20.1403 9.63053C20.0685 9.11588 19.7692 8.74486 19.3503 8.46958C19.0272 8.25415 18.9314 7.97887 19.0392 7.61982C19.1469 7.2847 19.4102 7.22486 19.7333 7.21289C21.6004 7.10517 23.4316 6.78202 25.2149 6.24344C25.8732 6.03998 25.9929 6.12376 25.9809 6.84187C25.9689 10.3726 25.945 13.8913 25.933 17.422C25.933 18.2359 26.0288 19.0497 26.3998 19.7918C26.699 20.3902 27.1299 20.8211 27.8719 20.857C28.6499 20.9049 29.0927 20.4381 29.4637 19.8756C29.9544 19.1096 30.0502 18.2359 30.0502 17.3742C30.0741 15.148 30.0741 12.9099 30.0502 10.6838C30.0502 9.79809 29.9425 8.93635 29.0688 8.39777C28.7935 8.23021 28.7456 7.931 28.8533 7.61982C28.9611 7.32061 29.1885 7.23683 29.4877 7.21289C31.3667 7.10517 33.2218 6.78202 35.0291 6.23147C35.6634 6.03998 35.7831 6.12376 35.7951 6.79399C35.7951 8.92439 35.7951 11.0548 35.7951 13.1971V13.1732Z" fill="#01003E"/>
</g>
<defs>
<clipPath id="clip0_341_965">
<rect width="76" height="22.6444" fill="white" transform="translate(0 0.677734)"/>
</clipPath>
</defs>
</svg>
